<?xml version="1.0" encoding="UTF-8"?>
<svg width="28px" height="28px" viewBox="0 0 28 28" version="1.1" xmlns="http://www.w3.org/2000/svg" xmlns:xlink="http://www.w3.org/1999/xlink">
    <title>5DE2F3A2-6676-4E7B-B75E-68B58F7C6E40</title>
    <g id="Styleguide" stroke="none" stroke-width="1" fill="none" fill-rule="evenodd">
        <g id="6_Icons" transform="translate(-912.000000, -396.000000)" fill="#000000">
            <g id="Icons-/-Header-+-Nav-Bar" transform="translate(296.000000, 394.000000)">
                <g id="Icons-/-Header-/-Hamburger" transform="translate(616.000000, 2.000000)">
                    <polygon id="hamburger" points="1 6 1 7 27 7 27 6"></polygon>
                    <polygon id="Path" points="1 13 1 14 27 14 27 13 1 13"></polygon>
                    <polygon id="Path" points="1 20 1 21 27 21 27 20"></polygon>
                </g>
            </g>
        </g>
    </g>
</svg>