<?xml version="1.0" encoding="UTF-8"?>
<svg width="34px" height="24px" viewBox="0 0 34 24" version="1.1" xmlns="http://www.w3.org/2000/svg" xmlns:xlink="http://www.w3.org/1999/xlink">
    <title>BA9D1A77-215F-40A6-B56C-8433D5BEC38E</title>
    <g id="Navigation-Menu" stroke="none" stroke-width="1" fill="none" fill-rule="evenodd">
        <g id="ForYouTab_Registered_ICONS_Description" transform="translate(-853.000000, -241.000000)" fill="#000000" fill-rule="nonzero">
            <g id="Flyout" transform="translate(0.000000, 163.000000)">
                <g id="for-you-nav-/-1260-/-orders" transform="translate(760.000000, 38.000000)">
                    <g id="Content" transform="translate(1.000000, 34.000000)">
                        <g id="Icons-/-Miscellaneous-/-Hanger" transform="translate(92.000000, 6.000000)">
                            <path d="M19.5880184,0.428571429 C20.7741935,0.428571429 21.7447005,1.39907834 21.7447005,2.58525346 L21.7440507,4.41757143 L26.0580645,4.41843318 C26.7050691,4.41843318 27.1364055,4.41843318 27.675576,4.84976959 C27.675576,4.84976959 27.675576,4.84976959 27.7075269,4.88172043 L27.7834101,4.95760369 L27.7834101,4.95760369 L32.7437788,12.1824885 C32.8516129,12.2903226 33.2829493,13.0451613 33.2829493,14.4470046 L33.2829493,17.6820276 C33.2829493,18.8682028 32.3124424,19.8387097 31.1262673,19.8387097 L30.6310463,19.8392209 C30.3258138,21.3672997 28.9640076,22.5345622 27.3520737,22.5345622 C25.7401398,22.5345622 24.3783336,21.3672997 24.0731012,19.8392209 L10.2504011,19.8392209 C9.94516869,21.3672997 8.58336247,22.5345622 6.97142857,22.5345622 C5.35949468,22.5345622 3.99768846,21.3672997 3.69245603,19.8392209 L2.87373272,19.8387097 C1.6875576,19.8387097 0.717050691,18.8682028 0.717050691,17.6820276 L0.717050691,2.58525346 C0.717050691,1.39907834 1.6875576,0.428571429 2.87373272,0.428571429 L19.5880184,0.428571429 Z M6.97142857,16.8193548 C5.67741935,16.8193548 4.59907834,17.8976959 4.59907834,19.1917051 C4.59907834,20.4857143 5.67741935,21.5640553 6.97142857,21.5640553 C8.26543779,21.5640553 9.3437788,20.4857143 9.3437788,19.1917051 C9.3437788,17.8976959 8.26543779,16.8193548 6.97142857,16.8193548 Z M27.3520737,16.8193548 C26.0580645,16.8193548 24.9797235,17.8976959 24.9797235,19.1917051 C24.9797235,20.4857143 26.0580645,21.5640553 27.3520737,21.5640553 C28.6460829,21.5640553 29.724424,20.4857143 29.724424,19.1917051 C29.724424,17.8976959 28.6460829,16.8193548 27.3520737,16.8193548 Z M19.6958525,1.29124424 L2.87373272,1.29124424 C2.22672811,1.29124424 1.6875576,1.83041475 1.6875576,2.47741935 L1.6875576,17.5741935 C1.6875576,18.2211982 2.22672811,18.7603687 2.87373272,18.7603687 L3.65684427,18.7593623 C3.87172755,17.1270574 5.28462704,15.8488479 6.97142857,15.8488479 C8.73223695,15.8488479 10.1945817,17.2416784 10.3072999,18.9761766 L24.0162024,18.9761766 C24.1289206,17.2416784 25.5912654,15.8488479 27.3520737,15.8488479 C29.1128821,15.8488479 30.5752268,17.2416784 30.6879451,18.9761766 L31.1262673,18.9760369 C31.7732719,18.9760369 32.3124424,18.4368664 32.3124424,17.7898618 L32.3124424,14.3391705 C32.3124424,13.2227704 31.9303589,12.6794955 31.8854079,12.6194438 L31.881106,12.6138249 L26.9207373,5.49677419 C26.7246753,5.30071219 26.6177324,5.28288837 26.1948218,5.28126803 L21.7440507,5.28057143 L21.7447005,16.8193548 C21.7447005,17.035023 21.5290323,17.2506912 21.3133641,17.2506912 C21.0976959,17.2506912 20.8820276,17.035023 20.8820276,16.8193548 L20.8820276,2.47741935 C20.8820276,1.83041475 20.3428571,1.29124424 19.6958525,1.29124424 Z M28.9695853,11.3198157 C29.1852535,11.3198157 29.4009217,11.5354839 29.4009217,11.7511521 C29.4009217,11.9668203 29.1852535,12.1824885 28.9695853,12.1824885 L23.4700461,12.1824885 C23.2543779,12.1824885 23.0387097,11.9668203 23.0387097,11.7511521 C23.0387097,11.5354839 23.2543779,11.3198157 23.4700461,11.3198157 L28.9695853,11.3198157 Z" id="Orders"></path>
                        </g>
                    </g>
                </g>
            </g>
        </g>
    </g>
</svg>