<?xml version="1.0" encoding="UTF-8"?>
<svg width="33px" height="33px" viewBox="0 0 33 33" version="1.1" xmlns="http://www.w3.org/2000/svg" xmlns:xlink="http://www.w3.org/1999/xlink">
    <title>EB7CCD5A-0C64-4F52-B954-2384F177774E</title>
    <g id="Styleguide" stroke="none" stroke-width="1" fill="none" fill-rule="evenodd">
        <g id="6_Icons" transform="translate(-450.000000, -4231.000000)" fill="#000000" fill-rule="nonzero">
            <g id="Icons-/-My-Account" transform="translate(292.000000, 4231.000000)">
                <g id="Icons-/-Miscellaneous-/-Address-Book" transform="translate(158.000000, 0.000000)">
                    <path d="M27.5733333,2.20252193 C28.3834921,2.20252193 28.9911111,2.81014098 28.9911111,3.62029971 L28.9911111,28.93776 C28.9911111,29.7479188 28.3834921,30.3555378 27.5733333,30.3555378 L6.81301587,30.3555378 C6.00285714,30.3555378 5.3952381,29.7479188 5.3952381,28.93776 L5.39503175,25.7975219 L3.57238095,25.7983949 C3.26857143,25.7983949 3.06603175,25.5958553 3.06603175,25.2920457 C3.06603175,24.9882362 3.26857143,24.7856965 3.57238095,24.7856965 L5.39503175,24.7855219 L5.39503175,21.2405219 L3.57238095,21.2412521 C3.26857143,21.2412521 3.06603175,21.0387124 3.06603175,20.7349029 C3.06603175,20.4310934 3.26857143,20.2285537 3.57238095,20.2285537 L5.39503175,20.2285219 L5.39503175,16.6835219 L3.57238095,16.6841092 C3.26857143,16.6841092 3.06603175,16.4815696 3.06603175,16.17776 C3.06603175,15.8739505 3.26857143,15.6714108 3.57238095,15.6714108 L5.39503175,15.6705219 L5.39503175,12.2275219 L3.57238095,12.2282362 C3.26857143,12.2282362 3.06603175,12.0256965 3.06603175,11.721887 C3.06603175,11.4180775 3.26857143,11.2155378 3.57238095,11.2155378 L5.39503175,11.2155219 L5.39503175,7.67052193 L3.57238095,7.67109336 C3.26857143,7.67109336 3.06603175,7.46855368 3.06603175,7.16474416 C3.06603175,6.86093463 3.26857143,6.65839495 3.57238095,6.65839495 L5.39503175,6.65752193 L5.3952381,3.62029971 C5.3952381,2.81014098 6.00285714,2.20252193 6.81301587,2.20252193 L27.5733333,2.20252193 Z M27.5733333,3.1139505 L6.81301587,3.1139505 C6.50920635,3.1139505 6.30666667,3.31649019 6.30666667,3.62029971 L6.30603175,6.65752193 L8.12952381,6.65839495 C8.43333333,6.65839495 8.63587302,6.86093463 8.63587302,7.16474416 C8.63587302,7.46855368 8.33206349,7.67109336 8.02825397,7.67109336 L6.30603175,7.67052193 L6.30603175,11.2155219 L8.12952381,11.2155378 C8.43333333,11.2155378 8.63587302,11.4180775 8.63587302,11.721887 C8.53460317,11.9244267 8.33206349,12.2282362 8.02825397,12.2282362 L6.30603175,12.2275219 L6.30603175,15.6705219 L8.12952381,15.6714108 C8.43333333,15.6714108 8.63587302,15.8739505 8.63587302,16.17776 C8.53460317,16.4815696 8.33206349,16.6841092 8.02825397,16.6841092 L6.30603175,16.6835219 L6.30603175,20.2285219 L8.12952381,20.2285537 C8.43333333,20.2285537 8.63587302,20.4310934 8.63587302,20.7349029 C8.53460317,21.0387124 8.33206349,21.2412521 8.02825397,21.2412521 L6.30603175,21.2405219 L6.30603175,24.7855219 L8.12952381,24.7856965 C8.43333333,24.7856965 8.63587302,24.9882362 8.63587302,25.2920457 C8.54585538,25.5620987 8.37582207,25.7521359 8.12577307,25.7910324 L8.02825397,25.7983949 L6.30603175,25.7975219 L6.30666667,28.93776 C6.30666667,29.2415696 6.50920635,29.4441092 6.81301587,29.4441092 L27.5733333,29.4441092 C27.8771429,29.4441092 28.0796825,29.2415696 28.0796825,28.93776 L28.0796825,3.62029971 C28.0796825,3.31649019 27.8771429,3.1139505 27.5733333,3.1139505 Z M17.6589154,16.5 L17.9099629,16.503015 C21.3914657,16.5853504 23.4492988,18.3530154 23.5476098,21.6796023 L23.5513006,21.9320173 L23.5513006,24.9082438 L23.5417229,25.0032531 C23.4977639,25.2180751 23.3076895,25.3796724 23.0798721,25.3796724 C22.8484385,25.3796724 22.6559556,25.2129044 22.6160388,24.9929837 L22.6084435,24.9082438 L22.6084435,21.9320173 L22.6042531,21.6599067 C22.5148061,18.8041397 20.7700594,17.5123735 17.6525312,17.4428571 L17.6547143,17.442 L17.395116,17.4500959 C14.4443314,17.5673867 12.8196532,18.885733 12.7327618,21.6599067 L12.7285714,21.9320173 L12.7285714,24.9082438 C12.7285714,25.1686066 12.5175057,25.3796724 12.2571429,25.3796724 C12.0293254,25.3796724 11.839251,25.2180751 11.795292,25.0032531 L11.7857143,24.9082438 L11.7857143,21.9320173 C11.7857143,18.4424519 13.8341187,16.5874088 17.4015245,16.503015 L17.6525312,16.5 L17.6589154,16.5 Z M17.6785714,8.25 C19.6312925,8.25 21.2142857,9.83299321 21.2142857,11.7857143 C21.2142857,13.7384354 19.6312925,15.3214286 17.6785714,15.3214286 C15.7258503,15.3214286 14.1428571,13.7384354 14.1428571,11.7857143 C14.1428571,9.83299321 15.7258503,8.25 17.6785714,8.25 Z M17.6785714,9.19285714 C16.246576,9.19285714 15.0857143,10.3537188 15.0857143,11.7857143 C15.0857143,13.2177097 16.246576,14.3785714 17.6785714,14.3785714 C19.1105669,14.3785714 20.2714286,13.2177097 20.2714286,11.7857143 C20.2714286,10.3537188 19.1105669,9.19285714 17.6785714,9.19285714 Z" id="Address-Book"></path>
                </g>
            </g>
        </g>
    </g>
</svg>