<?xml version="1.0" encoding="UTF-8"?>
<svg width="38px" height="40px" viewBox="0 0 38 40" version="1.1" xmlns="http://www.w3.org/2000/svg" xmlns:xlink="http://www.w3.org/1999/xlink">
    <title>33063248-DDCF-4287-A113-42AF33417499</title>
    <g id="Video" stroke="none" stroke-width="1" fill="none" fill-rule="evenodd">
        <g id="PDP-1260-Video-Flow-4" transform="translate(-63.000000, -813.000000)">
            <g id="Thumbnails" transform="translate(40.000000, 230.000000)">
                <g id="Images" transform="translate(0.000000, 35.852941)">
                    <g id="Icons-/-Media-/-Play" transform="translate(23.000000, 548.147059)">
                        <path d="M19,0.428571429 C8.78571429,0.428571429 0.428571429,8.78571429 0.428571429,19 C0.428571429,29.2142857 8.78571429,37.5714286 19,37.5714286 C29.2142857,37.5714286 37.5714286,29.2142857 37.5714286,19 C37.5714286,8.78571429 29.2142857,0.428571429 19,0.428571429 Z" id="Path" stroke="#000000" stroke-width="0.5" fill-opacity="0.6" fill="#FFFFFF"></path>
                        <path d="M14.7142857,12.4285714 L14.7142857,25.5714286 C14.7142857,26.1237133 15.162001,26.5714286 15.7142857,26.5714286 C15.9306559,26.5714286 16.1411895,26.5012507 16.3142857,26.3714286 L25.0761905,19.8 C25.5180183,19.4686292 25.6075613,18.8418278 25.2761905,18.4 C25.2193362,18.3241943 25.1519961,18.2568542 25.0761905,18.2 L16.3142857,11.6285714 C15.8724579,11.2972006 15.2456566,11.3867436 14.9142857,11.8285714 C14.7844636,12.0016676 14.7142857,12.2122012 14.7142857,12.4285714 Z" id="Path" fill="#000000"></path>
                        <path d="M19,0.428571429 C8.78337183,0.428571429 0.428571429,8.78337183 0.428571429,19 C0.428571429,29.2166282 8.78337183,37.5714286 19,37.5714286 C29.2166282,37.5714286 37.5714286,29.2166282 37.5714286,19 C37.5714286,8.78337183 29.2166282,0.428571429 19,0.428571429 Z M19,1.8042328 C28.4568714,1.8042328 36.1957672,9.54312863 36.1957672,19 C36.1957672,28.4568714 28.4568714,36.1957672 19,36.1957672 C9.54312863,36.1957672 1.8042328,28.4568714 1.8042328,19 C1.8042328,9.54312863 9.54312863,1.8042328 19,1.8042328 Z" id="Bg" fill="#000000" fill-rule="nonzero"></path>
                    </g>
                </g>
            </g>
        </g>
    </g>
</svg>