{
  "viewTypeMapping": {
    "medium": "hi-res",
    "small": "hi-res",
    "large": "hi-res",
    "mediumhighres": "hi-res",
    "smallhighres": "hi-res",
    "largehighres": "hi-res",
    "mediumhighresmodel": "hi-res-model",
    "smallhighresmodel": "hi-res-model",
    "largehighresmodel": "hi-res-model",
    "hi-res-model": "hi-res-model"
  },
  "highResMapping": {
    "medium": "mediumhighres",
    "small": "smallhighres",
    "large": "largehighres"
  },
  "highResModelMapping": {
    "medium": "mediumhighresmodel",
    "small": "smallhighresmodel",
    "large": "largehighresmodel"
  },
  "large": {
    "scaleWidth": 480,
    "scaleHeight": 640
  },
  "largehighres": {
    "scaleWidth": 984,
    "scaleHeight": 1312
  },
  "largehighresmodel": {
    "scaleWidth": 984,
    "scaleHeight": 1312
  },
  "medium": {
    "scaleWidth": 233,
    "scaleHeight": 310
  },
  "mediumhighres": {
    "scaleWidth": 534,
    "scaleHeight": 712
  },
  "mediumhighresmodel": {
    "scaleWidth": 534,
    "scaleHeight": 712
  },
  "small": {
    "scaleWidth": 111,
    "scaleHeight": 148
  },
  "smallhighres": {
    "scaleWidth": 222,
    "scaleHeight": 296
  },
  "smallhighresmodel": {
    "scaleWidth": 222,
    "scaleHeight": 296
  },
  "swatch": {
    "scaleWidth": 36,
    "scaleHeight": 36
  },
  "video": {
    "scaleWidth": 36,
    "scaleHeight": 36
  },
  "missingImages": {
    "TheBay": {
      "large": "TheBay_ImageNotAvailable@2x",
      "medium": "TheBay_ImageNotAvailable@2x",
      "small": "TheBay_ImageNotAvailable@2x"
    },
    "SaksOff5th": {
      "large": "Off5TH_ImageNotAvailable@2x",
      "medium": "Off5TH_ImageNotAvailable@2x",
      "small": "Off5TH_ImageNotAvailable@2x"
    },
    "SaksFifthAvenue": {
      "large": "Off5TH_ImageNotAvailable@2x",
      "medium": "Off5TH_ImageNotAvailable@2x",
      "small": "Off5TH_ImageNotAvailable@2x"
    }
  }
}
